Chapter 3 Working with tabular data in R | Introduction to R
…
If you were to type in the code above, it is likely that the read.csv() (note the dot!) function would appear in the automatically populated list of functions. This function is different from the read_csv() (note the underscore!) function, as it is included in the “base” packages that come pre-installed with R. Overall, read.csv() behaves similar to read_csv(), with a few notable differences. First, read.csv() coerces column names with spaces and/or special characters to different names (e.g. interview date becomes interview.date). Second, read.csv() stores data as a data.frame, where read_csv() stores data as a tibble. We prefer tibbles because they have nice printing properties among other desirable qualities. Read more about tibbles here.

The second statement in the code above creates a data frame but doesn’t output any data because, as you might recall, assignments (<-) don’t display anything. (Note, however, that read_csv may show informational text about the data frame that is created.)

So let’s check out the data! We can type the name of the object stops:

stops

#> # A tibble: 211,211 × 11
#>    id            state stop_date  county_name      county_fips police_department
#>    <chr>         <chr> <date>     <chr>                  <dbl> <chr>            
#>  1 MS-2013-00001 MS    2013-01-01 Jones County           28067 Mississippi High…
#>  2 MS-2013-00002 MS    2013-01-01 Lauderdale Coun…       28075 Mississippi High…
#>  3 MS-2013-00003 MS    2013-01-01 Pike County            28113 Mississippi High…
#>  4 MS-2013-00004 MS    2013-01-01 Hancock County         28045 Mississippi High…
#>  5 MS-2013-00005 MS    2013-01-01 Holmes County          28051 Mississippi High…
#>  6 MS-2013-00006 MS    2013-01-01 Jackson County         28059 Mississippi High…
#>  7 MS-2013-00007 MS    2013-01-01 Jackson County         28059 Mississippi High…
#>  8 MS-2013-00008 MS    2013-01-01 Grenada County         28043 Mississippi High…
#>  9 MS-2013-00009 MS    2013-01-01 Holmes County          28051 Mississippi High…
#> 10 MS-2013-00010 MS    2013-01-01 Holmes County          28051 Mississippi High…
#> # ℹ 211,201 more rows
#> # ℹ 5 more variables: driver_gender <chr>, driver_birthdate <date>,
#> #   driver_race <chr>, violation_raw <chr>, officer_id <chr>
…
